................
----------------------------------------------------------------------
Ran 16 tests in 0.658s

OK
Name             Stmts   Miss Branch BrPart  Cover   Missing
------------------------------------------------------------
Collatz.py          44      0     18      0   100%
TestCollatz.py      74      0      0      0   100%
------------------------------------------------------------
TOTAL              118      0     18      0   100%
